(['C:\\Users\\wagne\\Desktop\\comunicacaoslack\\MENU.py'],
 ['C:\\Users\\wagne\\Desktop\\comunicacaoslack',
  'C:\\Users\\wagne\\Desktop\\comunicacaoslack'],
 ['codecs'],
 [],
 [],
 [],
 False,
 False,
 '3.7.4 (tags/v3.7.4:e09359112e, Jul  8 2019, 19:29:22) [MSC v.1916 32 bit '
 '(Intel)]',
 [('pyi_rth_certifi',
   'c:\\users\\wagne\\appdata\\local\\programs\\python\\python37-32\\lib\\site-packages\\PyInstaller\\loader\\rthooks\\pyi_rth_certifi.py',
   'PYSOURCE'),
  ('pyi_rth_pyqt5',
   'c:\\users\\wagne\\appdata\\local\\programs\\python\\python37-32\\lib\\site-packages\\PyInstaller\\loader\\rthooks\\pyi_rth_pyqt5.py',
   'PYSOURCE'),
  ('MENU', 'C:\\Users\\wagne\\Desktop\\comunicacaoslack\\MENU.py', 'PYSOURCE')],
 [('ntpath',
   'c:\\users\\wagne\\appdata\\local\\programs\\python\\python37-32\\lib\\ntpath.py',
   'PYMODULE'),
  ('_strptime',
   'c:\\users\\wagne\\appdata\\local\\programs\\python\\python37-32\\lib\\_strptime.py',
   'PYMODULE'),
  ('datetime',
   'c:\\users\\wagne\\appdata\\local\\programs\\python\\python37-32\\lib\\datetime.py',
   'PYMODULE'),
  ('stringprep',
   'c:\\users\\wagne\\appdata\\local\\programs\\python\\python37-32\\lib\\stringprep.py',
   'PYMODULE'),
  ('tracemalloc',
   'c:\\users\\wagne\\appdata\\local\\programs\\python\\python37-32\\lib\\tracemalloc.py',
   'PYMODULE'),
  ('typing',
   'c:\\users\\wagne\\appdata\\local\\programs\\python\\python37-32\\lib\\typing.py',
   'PYMODULE'),
  ('__future__',
   'c:\\users\\wagne\\appdata\\local\\programs\\python\\python37-32\\lib\\__future__.py',
   'PYMODULE'),
  ('difflib',
   'c:\\users\\wagne\\appdata\\local\\programs\\python\\python37-32\\lib\\difflib.py',
   'PYMODULE'),
  ('ast',
   'c:\\users\\wagne\\appdata\\local\\programs\\python\\python37-32\\lib\\ast.py',
   'PYMODULE'),
  ('inspect',
   'c:\\users\\wagne\\appdata\\local\\programs\\python\\python37-32\\lib\\inspect.py',
   'PYMODULE'),
  ('cmd',
   'c:\\users\\wagne\\appdata\\local\\programs\\python\\python37-32\\lib\\cmd.py',
   'PYMODULE'),
  ('bdb',
   'c:\\users\\wagne\\appdata\\local\\programs\\python\\python37-32\\lib\\bdb.py',
   'PYMODULE'),
  ('opcode',
   'c:\\users\\wagne\\appdata\\local\\programs\\python\\python37-32\\lib\\opcode.py',
   'PYMODULE'),
  ('dis',
   'c:\\users\\wagne\\appdata\\local\\programs\\python\\python37-32\\lib\\dis.py',
   'PYMODULE'),
  ('codeop',
   'c:\\users\\wagne\\appdata\\local\\programs\\python\\python37-32\\lib\\codeop.py',
   'PYMODULE'),
  ('code',
   'c:\\users\\wagne\\appdata\\local\\programs\\python\\python37-32\\lib\\code.py',
   'PYMODULE'),
  ('glob',
   'c:\\users\\wagne\\appdata\\local\\programs\\python\\python37-32\\lib\\glob.py',
   'PYMODULE'),
  ('shlex',
   'c:\\users\\wagne\\appdata\\local\\programs\\python\\python37-32\\lib\\shlex.py',
   'PYMODULE'),
  ('runpy',
   'c:\\users\\wagne\\appdata\\local\\programs\\python\\python37-32\\lib\\runpy.py',
   'PYMODULE'),
  ('importlib._bootstrap',
   'c:\\users\\wagne\\appdata\\local\\programs\\python\\python37-32\\lib\\importlib\\_bootstrap.py',
   'PYMODULE'),
  ('importlib._bootstrap_external',
   'c:\\users\\wagne\\appdata\\local\\programs\\python\\python37-32\\lib\\importlib\\_bootstrap_external.py',
   'PYMODULE'),
  ('importlib.machinery',
   'c:\\users\\wagne\\appdata\\local\\programs\\python\\python37-32\\lib\\importlib\\machinery.py',
   'PYMODULE'),
  ('importlib.util',
   'c:\\users\\wagne\\appdata\\local\\programs\\python\\python37-32\\lib\\importlib\\util.py',
   'PYMODULE'),
  ('importlib.abc',
   'c:\\users\\wagne\\appdata\\local\\programs\\python\\python37-32\\lib\\importlib\\abc.py',
   'PYMODULE'),
  ('importlib',
   'c:\\users\\wagne\\appdata\\local\\programs\\python\\python37-32\\lib\\importlib\\__init__.py',
   'PYMODULE'),
  ('pkgutil',
   'c:\\users\\wagne\\appdata\\local\\programs\\python\\python37-32\\lib\\pkgutil.py',
   'PYMODULE'),
  ('xml',
   'c:\\users\\wagne\\appdata\\local\\programs\\python\\python37-32\\lib\\xml\\__init__.py',
   'PYMODULE'),
  ('xml.sax.expatreader',
   'c:\\users\\wagne\\appdata\\local\\programs\\python\\python37-32\\lib\\xml\\sax\\expatreader.py',
   'PYMODULE'),
  ('xml.sax.saxutils',
   'c:\\users\\wagne\\appdata\\local\\programs\\python\\python37-32\\lib\\xml\\sax\\saxutils.py',
   'PYMODULE'),
  ('urllib.request',
   'c:\\users\\wagne\\appdata\\local\\programs\\python\\python37-32\\lib\\urllib\\request.py',
   'PYMODULE'),
  ('getpass',
   'c:\\users\\wagne\\appdata\\local\\programs\\python\\python37-32\\lib\\getpass.py',
   'PYMODULE'),
  ('nturl2path',
   'c:\\users\\wagne\\appdata\\local\\programs\\python\\python37-32\\lib\\nturl2path.py',
   'PYMODULE'),
  ('ftplib',
   'c:\\users\\wagne\\appdata\\local\\programs\\python\\python37-32\\lib\\ftplib.py',
   'PYMODULE'),
  ('netrc',
   'c:\\users\\wagne\\appdata\\local\\programs\\python\\python37-32\\lib\\netrc.py',
   'PYMODULE'),
  ('http.cookiejar',
   'c:\\users\\wagne\\appdata\\local\\programs\\python\\python37-32\\lib\\http\\cookiejar.py',
   'PYMODULE'),
  ('urllib.response',
   'c:\\users\\wagne\\appdata\\local\\programs\\python\\python37-32\\lib\\urllib\\response.py',
   'PYMODULE'),
  ('urllib.error',
   'c:\\users\\wagne\\appdata\\local\\programs\\python\\python37-32\\lib\\urllib\\error.py',
   'PYMODULE'),
  ('xml.sax',
   'c:\\users\\wagne\\appdata\\local\\programs\\python\\python37-32\\lib\\xml\\sax\\__init__.py',
   'PYMODULE'),
  ('xml.sax.handler',
   'c:\\users\\wagne\\appdata\\local\\programs\\python\\python37-32\\lib\\xml\\sax\\handler.py',
   'PYMODULE'),
  ('xml.sax._exceptions',
   'c:\\users\\wagne\\appdata\\local\\programs\\python\\python37-32\\lib\\xml\\sax\\_exceptions.py',
   'PYMODULE'),
  ('xml.sax.xmlreader',
   'c:\\users\\wagne\\appdata\\local\\programs\\python\\python37-32\\lib\\xml\\sax\\xmlreader.py',
   'PYMODULE'),
  ('xml.parsers',
   'c:\\users\\wagne\\appdata\\local\\programs\\python\\python37-32\\lib\\xml\\parsers\\__init__.py',
   'PYMODULE'),
  ('xml.parsers.expat',
   'c:\\users\\wagne\\appdata\\local\\programs\\python\\python37-32\\lib\\xml\\parsers\\expat.py',
   'PYMODULE'),
  ('plistlib',
   'c:\\users\\wagne\\appdata\\local\\programs\\python\\python37-32\\lib\\plistlib.py',
   'PYMODULE'),
  ('platform',
   'c:\\users\\wagne\\appdata\\local\\programs\\python\\python37-32\\lib\\platform.py',
   'PYMODULE'),
  ('urllib.parse',
   'c:\\users\\wagne\\appdata\\local\\programs\\python\\python37-32\\lib\\urllib\\parse.py',
   'PYMODULE'),
  ('tempfile',
   'c:\\users\\wagne\\appdata\\local\\programs\\python\\python37-32\\lib\\tempfile.py',
   'PYMODULE'),
  ('tty',
   'c:\\users\\wagne\\appdata\\local\\programs\\python\\python37-32\\lib\\tty.py',
   'PYMODULE'),
  ('pydoc_data',
   'c:\\users\\wagne\\appdata\\local\\programs\\python\\python37-32\\lib\\pydoc_data\\__init__.py',
   'PYMODULE'),
  ('pydoc_data.topics',
   'c:\\users\\wagne\\appdata\\local\\programs\\python\\python37-32\\lib\\pydoc_data\\topics.py',
   'PYMODULE'),
  ('html.entities',
   'c:\\users\\wagne\\appdata\\local\\programs\\python\\python37-32\\lib\\html\\entities.py',
   'PYMODULE'),
  ('html',
   'c:\\users\\wagne\\appdata\\local\\programs\\python\\python37-32\\lib\\html\\__init__.py',
   'PYMODULE'),
  ('ssl',
   'c:\\users\\wagne\\appdata\\local\\programs\\python\\python37-32\\lib\\ssl.py',
   'PYMODULE'),
  ('http.client',
   'c:\\users\\wagne\\appdata\\local\\programs\\python\\python37-32\\lib\\http\\client.py',
   'PYMODULE'),
  ('mimetypes',
   'c:\\users\\wagne\\appdata\\local\\programs\\python\\python37-32\\lib\\mimetypes.py',
   'PYMODULE'),
  ('socketserver',
   'c:\\users\\wagne\\appdata\\local\\programs\\python\\python37-32\\lib\\socketserver.py',
   'PYMODULE'),
  ('http',
   'c:\\users\\wagne\\appdata\\local\\programs\\python\\python37-32\\lib\\http\\__init__.py',
   'PYMODULE'),
  ('http.server',
   'c:\\users\\wagne\\appdata\\local\\programs\\python\\python37-32\\lib\\http\\server.py',
   'PYMODULE'),
  ('optparse',
   'c:\\users\\wagne\\appdata\\local\\programs\\python\\python37-32\\lib\\optparse.py',
   'PYMODULE'),
  ('uu',
   'c:\\users\\wagne\\appdata\\local\\programs\\python\\python37-32\\lib\\uu.py',
   'PYMODULE'),
  ('quopri',
   'c:\\users\\wagne\\appdata\\local\\programs\\python\\python37-32\\lib\\quopri.py',
   'PYMODULE'),
  ('email.feedparser',
   'c:\\users\\wagne\\appdata\\local\\programs\\python\\python37-32\\lib\\email\\feedparser.py',
   'PYMODULE'),
  ('email.parser',
   'c:\\users\\wagne\\appdata\\local\\programs\\python\\python37-32\\lib\\email\\parser.py',
   'PYMODULE'),
  ('email',
   'c:\\users\\wagne\\appdata\\local\\programs\\python\\python37-32\\lib\\email\\__init__.py',
   'PYMODULE'),
  ('calendar',
   'c:\\users\\wagne\\appdata\\local\\programs\\python\\python37-32\\lib\\calendar.py',
   'PYMODULE'),
  ('email._parseaddr',
   'c:\\users\\wagne\\appdata\\local\\programs\\python\\python37-32\\lib\\email\\_parseaddr.py',
   'PYMODULE'),
  ('email.utils',
   'c:\\users\\wagne\\appdata\\local\\programs\\python\\python37-32\\lib\\email\\utils.py',
   'PYMODULE'),
  ('email.errors',
   'c:\\users\\wagne\\appdata\\local\\programs\\python\\python37-32\\lib\\email\\errors.py',
   'PYMODULE'),
  ('email.header',
   'c:\\users\\wagne\\appdata\\local\\programs\\python\\python37-32\\lib\\email\\header.py',
   'PYMODULE'),
  ('email._policybase',
   'c:\\users\\wagne\\appdata\\local\\programs\\python\\python37-32\\lib\\email\\_policybase.py',
   'PYMODULE'),
  ('email.base64mime',
   'c:\\users\\wagne\\appdata\\local\\programs\\python\\python37-32\\lib\\email\\base64mime.py',
   'PYMODULE'),
  ('email.encoders',
   'c:\\users\\wagne\\appdata\\local\\programs\\python\\python37-32\\lib\\email\\encoders.py',
   'PYMODULE'),
  ('email.charset',
   'c:\\users\\wagne\\appdata\\local\\programs\\python\\python37-32\\lib\\email\\charset.py',
   'PYMODULE'),
  ('base64',
   'c:\\users\\wagne\\appdata\\local\\programs\\python\\python37-32\\lib\\base64.py',
   'PYMODULE'),
  ('email._encoded_words',
   'c:\\users\\wagne\\appdata\\local\\programs\\python\\python37-32\\lib\\email\\_encoded_words.py',
   'PYMODULE'),
  ('hashlib',
   'c:\\users\\wagne\\appdata\\local\\programs\\python\\python37-32\\lib\\hashlib.py',
   'PYMODULE'),
  ('bisect',
   'c:\\users\\wagne\\appdata\\local\\programs\\python\\python37-32\\lib\\bisect.py',
   'PYMODULE'),
  ('random',
   'c:\\users\\wagne\\appdata\\local\\programs\\python\\python37-32\\lib\\random.py',
   'PYMODULE'),
  ('email.generator',
   'c:\\users\\wagne\\appdata\\local\\programs\\python\\python37-32\\lib\\email\\generator.py',
   'PYMODULE'),
  ('email.iterators',
   'c:\\users\\wagne\\appdata\\local\\programs\\python\\python37-32\\lib\\email\\iterators.py',
   'PYMODULE'),
  ('urllib',
   'c:\\users\\wagne\\appdata\\local\\programs\\python\\python37-32\\lib\\urllib\\__init__.py',
   'PYMODULE'),
  ('email._header_value_parser',
   'c:\\users\\wagne\\appdata\\local\\programs\\python\\python37-32\\lib\\email\\_header_value_parser.py',
   'PYMODULE'),
  ('email.headerregistry',
   'c:\\users\\wagne\\appdata\\local\\programs\\python\\python37-32\\lib\\email\\headerregistry.py',
   'PYMODULE'),
  ('email.quoprimime',
   'c:\\users\\wagne\\appdata\\local\\programs\\python\\python37-32\\lib\\email\\quoprimime.py',
   'PYMODULE'),
  ('email.contentmanager',
   'c:\\users\\wagne\\appdata\\local\\programs\\python\\python37-32\\lib\\email\\contentmanager.py',
   'PYMODULE'),
  ('email.policy',
   'c:\\users\\wagne\\appdata\\local\\programs\\python\\python37-32\\lib\\email\\policy.py',
   'PYMODULE'),
  ('email.message',
   'c:\\users\\wagne\\appdata\\local\\programs\\python\\python37-32\\lib\\email\\message.py',
   'PYMODULE'),
  ('bz2',
   'c:\\users\\wagne\\appdata\\local\\programs\\python\\python37-32\\lib\\bz2.py',
   'PYMODULE'),
  ('lzma',
   'c:\\users\\wagne\\appdata\\local\\programs\\python\\python37-32\\lib\\lzma.py',
   'PYMODULE'),
  ('_compression',
   'c:\\users\\wagne\\appdata\\local\\programs\\python\\python37-32\\lib\\_compression.py',
   'PYMODULE'),
  ('gzip',
   'c:\\users\\wagne\\appdata\\local\\programs\\python\\python37-32\\lib\\gzip.py',
   'PYMODULE'),
  ('tarfile',
   'c:\\users\\wagne\\appdata\\local\\programs\\python\\python37-32\\lib\\tarfile.py',
   'PYMODULE'),
  ('py_compile',
   'c:\\users\\wagne\\appdata\\local\\programs\\python\\python37-32\\lib\\py_compile.py',
   'PYMODULE'),
  ('zipfile',
   'c:\\users\\wagne\\appdata\\local\\programs\\python\\python37-32\\lib\\zipfile.py',
   'PYMODULE'),
  ('shutil',
   'c:\\users\\wagne\\appdata\\local\\programs\\python\\python37-32\\lib\\shutil.py',
   'PYMODULE'),
  ('socket',
   'c:\\users\\wagne\\appdata\\local\\programs\\python\\python37-32\\lib\\socket.py',
   'PYMODULE'),
  ('webbrowser',
   'c:\\users\\wagne\\appdata\\local\\programs\\python\\python37-32\\lib\\webbrowser.py',
   'PYMODULE'),
  ('pydoc',
   'c:\\users\\wagne\\appdata\\local\\programs\\python\\python37-32\\lib\\pydoc.py',
   'PYMODULE'),
  ('getopt',
   'c:\\users\\wagne\\appdata\\local\\programs\\python\\python37-32\\lib\\getopt.py',
   'PYMODULE'),
  ('pdb',
   'c:\\users\\wagne\\appdata\\local\\programs\\python\\python37-32\\lib\\pdb.py',
   'PYMODULE'),
  ('unittest.util',
   'c:\\users\\wagne\\appdata\\local\\programs\\python\\python37-32\\lib\\unittest\\util.py',
   'PYMODULE'),
  ('unittest.result',
   'c:\\users\\wagne\\appdata\\local\\programs\\python\\python37-32\\lib\\unittest\\result.py',
   'PYMODULE'),
  ('string',
   'c:\\users\\wagne\\appdata\\local\\programs\\python\\python37-32\\lib\\string.py',
   'PYMODULE'),
  ('_compat_pickle',
   'c:\\users\\wagne\\appdata\\local\\programs\\python\\python37-32\\lib\\_compat_pickle.py',
   'PYMODULE'),
  ('pickle',
   'c:\\users\\wagne\\appdata\\local\\programs\\python\\python37-32\\lib\\pickle.py',
   'PYMODULE'),
  ('logging',
   'c:\\users\\wagne\\appdata\\local\\programs\\python\\python37-32\\lib\\logging\\__init__.py',
   'PYMODULE'),
  ('pprint',
   'c:\\users\\wagne\\appdata\\local\\programs\\python\\python37-32\\lib\\pprint.py',
   'PYMODULE'),
  ('unittest.case',
   'c:\\users\\wagne\\appdata\\local\\programs\\python\\python37-32\\lib\\unittest\\case.py',
   'PYMODULE'),
  ('unittest.suite',
   'c:\\users\\wagne\\appdata\\local\\programs\\python\\python37-32\\lib\\unittest\\suite.py',
   'PYMODULE'),
  ('fnmatch',
   'c:\\users\\wagne\\appdata\\local\\programs\\python\\python37-32\\lib\\fnmatch.py',
   'PYMODULE'),
  ('unittest.loader',
   'c:\\users\\wagne\\appdata\\local\\programs\\python\\python37-32\\lib\\unittest\\loader.py',
   'PYMODULE'),
  ('unittest.runner',
   'c:\\users\\wagne\\appdata\\local\\programs\\python\\python37-32\\lib\\unittest\\runner.py',
   'PYMODULE'),
  ('unittest.main',
   'c:\\users\\wagne\\appdata\\local\\programs\\python\\python37-32\\lib\\unittest\\main.py',
   'PYMODULE'),
  ('unittest.signals',
   'c:\\users\\wagne\\appdata\\local\\programs\\python\\python37-32\\lib\\unittest\\signals.py',
   'PYMODULE'),
  ('unittest',
   'c:\\users\\wagne\\appdata\\local\\programs\\python\\python37-32\\lib\\unittest\\__init__.py',
   'PYMODULE'),
  ('doctest',
   'c:\\users\\wagne\\appdata\\local\\programs\\python\\python37-32\\lib\\doctest.py',
   'PYMODULE'),
  ('token',
   'c:\\users\\wagne\\appdata\\local\\programs\\python\\python37-32\\lib\\token.py',
   'PYMODULE'),
  ('struct',
   'c:\\users\\wagne\\appdata\\local\\programs\\python\\python37-32\\lib\\struct.py',
   'PYMODULE'),
  ('gettext',
   'c:\\users\\wagne\\appdata\\local\\programs\\python\\python37-32\\lib\\gettext.py',
   'PYMODULE'),
  ('textwrap',
   'c:\\users\\wagne\\appdata\\local\\programs\\python\\python37-32\\lib\\textwrap.py',
   'PYMODULE'),
  ('argparse',
   'c:\\users\\wagne\\appdata\\local\\programs\\python\\python37-32\\lib\\argparse.py',
   'PYMODULE'),
  ('tokenize',
   'c:\\users\\wagne\\appdata\\local\\programs\\python\\python37-32\\lib\\tokenize.py',
   'PYMODULE'),
  ('_py_abc',
   'c:\\users\\wagne\\appdata\\local\\programs\\python\\python37-32\\lib\\_py_abc.py',
   'PYMODULE'),
  ('copy',
   'c:\\users\\wagne\\appdata\\local\\programs\\python\\python37-32\\lib\\copy.py',
   'PYMODULE'),
  ('stat',
   'c:\\users\\wagne\\appdata\\local\\programs\\python\\python37-32\\lib\\stat.py',
   'PYMODULE'),
  ('genericpath',
   'c:\\users\\wagne\\appdata\\local\\programs\\python\\python37-32\\lib\\genericpath.py',
   'PYMODULE'),
  ('posixpath',
   'c:\\users\\wagne\\appdata\\local\\programs\\python\\python37-32\\lib\\posixpath.py',
   'PYMODULE'),
  ('signal',
   'c:\\users\\wagne\\appdata\\local\\programs\\python\\python37-32\\lib\\signal.py',
   'PYMODULE'),
  ('contextlib',
   'c:\\users\\wagne\\appdata\\local\\programs\\python\\python37-32\\lib\\contextlib.py',
   'PYMODULE'),
  ('_threading_local',
   'c:\\users\\wagne\\appdata\\local\\programs\\python\\python37-32\\lib\\_threading_local.py',
   'PYMODULE'),
  ('threading',
   'c:\\users\\wagne\\appdata\\local\\programs\\python\\python37-32\\lib\\threading.py',
   'PYMODULE'),
  ('selectors',
   'c:\\users\\wagne\\appdata\\local\\programs\\python\\python37-32\\lib\\selectors.py',
   'PYMODULE'),
  ('subprocess',
   'c:\\users\\wagne\\appdata\\local\\programs\\python\\python37-32\\lib\\subprocess.py',
   'PYMODULE'),
  ('os',
   'c:\\users\\wagne\\appdata\\local\\programs\\python\\python37-32\\lib\\os.py',
   'PYMODULE'),
  ('Sucesso',
   'C:\\Users\\wagne\\Desktop\\comunicacaoslack\\Sucesso.py',
   'PYMODULE'),
  ('requests',
   'c:\\users\\wagne\\appdata\\local\\programs\\python\\python37-32\\lib\\site-packages\\requests\\__init__.py',
   'PYMODULE'),
  ('requests.status_codes',
   'c:\\users\\wagne\\appdata\\local\\programs\\python\\python37-32\\lib\\site-packages\\requests\\status_codes.py',
   'PYMODULE'),
  ('requests.structures',
   'c:\\users\\wagne\\appdata\\local\\programs\\python\\python37-32\\lib\\site-packages\\requests\\structures.py',
   'PYMODULE'),
  ('requests.compat',
   'c:\\users\\wagne\\appdata\\local\\programs\\python\\python37-32\\lib\\site-packages\\requests\\compat.py',
   'PYMODULE'),
  ('http.cookies',
   'c:\\users\\wagne\\appdata\\local\\programs\\python\\python37-32\\lib\\http\\cookies.py',
   'PYMODULE'),
  ('requests.api',
   'c:\\users\\wagne\\appdata\\local\\programs\\python\\python37-32\\lib\\site-packages\\requests\\api.py',
   'PYMODULE'),
  ('requests.sessions',
   'c:\\users\\wagne\\appdata\\local\\programs\\python\\python37-32\\lib\\site-packages\\requests\\sessions.py',
   'PYMODULE'),
  ('requests.adapters',
   'c:\\users\\wagne\\appdata\\local\\programs\\python\\python37-32\\lib\\site-packages\\requests\\adapters.py',
   'PYMODULE'),
  ('urllib3.contrib.socks',
   'c:\\users\\wagne\\appdata\\local\\programs\\python\\python37-32\\lib\\site-packages\\urllib3\\contrib\\socks.py',
   'PYMODULE'),
  ('urllib3.util.url',
   'c:\\users\\wagne\\appdata\\local\\programs\\python\\python37-32\\lib\\site-packages\\urllib3\\util\\url.py',
   'PYMODULE'),
  ('idna',
   'c:\\users\\wagne\\appdata\\local\\programs\\python\\python37-32\\lib\\site-packages\\idna\\__init__.py',
   'PYMODULE'),
  ('idna.core',
   'c:\\users\\wagne\\appdata\\local\\programs\\python\\python37-32\\lib\\site-packages\\idna\\core.py',
   'PYMODULE'),
  ('idna.uts46data',
   'c:\\users\\wagne\\appdata\\local\\programs\\python\\python37-32\\lib\\site-packages\\idna\\uts46data.py',
   'PYMODULE'),
  ('idna.intranges',
   'c:\\users\\wagne\\appdata\\local\\programs\\python\\python37-32\\lib\\site-packages\\idna\\intranges.py',
   'PYMODULE'),
  ('idna.idnadata',
   'c:\\users\\wagne\\appdata\\local\\programs\\python\\python37-32\\lib\\site-packages\\idna\\idnadata.py',
   'PYMODULE'),
  ('idna.package_data',
   'c:\\users\\wagne\\appdata\\local\\programs\\python\\python37-32\\lib\\site-packages\\idna\\package_data.py',
   'PYMODULE'),
  ('urllib3.packages.six',
   'c:\\users\\wagne\\appdata\\local\\programs\\python\\python37-32\\lib\\site-packages\\urllib3\\packages\\six.py',
   'PYMODULE'),
  ('urllib3.packages',
   'c:\\users\\wagne\\appdata\\local\\programs\\python\\python37-32\\lib\\site-packages\\urllib3\\packages\\__init__.py',
   'PYMODULE'),
  ('urllib3.packages.ssl_match_hostname',
   'c:\\users\\wagne\\appdata\\local\\programs\\python\\python37-32\\lib\\site-packages\\urllib3\\packages\\ssl_match_hostname\\__init__.py',
   'PYMODULE'),
  ('urllib3.packages.ssl_match_hostname._implementation',
   'c:\\users\\wagne\\appdata\\local\\programs\\python\\python37-32\\lib\\site-packages\\urllib3\\packages\\ssl_match_hostname\\_implementation.py',
   'PYMODULE'),
  ('ipaddress',
   'c:\\users\\wagne\\appdata\\local\\programs\\python\\python37-32\\lib\\ipaddress.py',
   'PYMODULE'),
  ('urllib3.connectionpool',
   'c:\\users\\wagne\\appdata\\local\\programs\\python\\python37-32\\lib\\site-packages\\urllib3\\connectionpool.py',
   'PYMODULE'),
  ('urllib3.util.queue',
   'c:\\users\\wagne\\appdata\\local\\programs\\python\\python37-32\\lib\\site-packages\\urllib3\\util\\queue.py',
   'PYMODULE'),
  ('urllib3.util.timeout',
   'c:\\users\\wagne\\appdata\\local\\programs\\python\\python37-32\\lib\\site-packages\\urllib3\\util\\timeout.py',
   'PYMODULE'),
  ('urllib3.util.response',
   'c:\\users\\wagne\\appdata\\local\\programs\\python\\python37-32\\lib\\site-packages\\urllib3\\util\\response.py',
   'PYMODULE'),
  ('urllib3.util.request',
   'c:\\users\\wagne\\appdata\\local\\programs\\python\\python37-32\\lib\\site-packages\\urllib3\\util\\request.py',
   'PYMODULE'),
  ('urllib3.util.connection',
   'c:\\users\\wagne\\appdata\\local\\programs\\python\\python37-32\\lib\\site-packages\\urllib3\\util\\connection.py',
   'PYMODULE'),
  ('urllib3.contrib._appengine_environ',
   'c:\\users\\wagne\\appdata\\local\\programs\\python\\python37-32\\lib\\site-packages\\urllib3\\contrib\\_appengine_environ.py',
   'PYMODULE'),
  ('urllib3.util.wait',
   'c:\\users\\wagne\\appdata\\local\\programs\\python\\python37-32\\lib\\site-packages\\urllib3\\util\\wait.py',
   'PYMODULE'),
  ('urllib3.request',
   'c:\\users\\wagne\\appdata\\local\\programs\\python\\python37-32\\lib\\site-packages\\urllib3\\request.py',
   'PYMODULE'),
  ('urllib3.filepost',
   'c:\\users\\wagne\\appdata\\local\\programs\\python\\python37-32\\lib\\site-packages\\urllib3\\filepost.py',
   'PYMODULE'),
  ('urllib3.fields',
   'c:\\users\\wagne\\appdata\\local\\programs\\python\\python37-32\\lib\\site-packages\\urllib3\\fields.py',
   'PYMODULE'),
  ('queue',
   'c:\\users\\wagne\\appdata\\local\\programs\\python\\python37-32\\lib\\queue.py',
   'PYMODULE'),
  ('urllib3.connection',
   'c:\\users\\wagne\\appdata\\local\\programs\\python\\python37-32\\lib\\site-packages\\urllib3\\connection.py',
   'PYMODULE'),
  ('urllib3._collections',
   'c:\\users\\wagne\\appdata\\local\\programs\\python\\python37-32\\lib\\site-packages\\urllib3\\_collections.py',
   'PYMODULE'),
  ('urllib3.util.ssl_',
   'c:\\users\\wagne\\appdata\\local\\programs\\python\\python37-32\\lib\\site-packages\\urllib3\\util\\ssl_.py',
   'PYMODULE'),
  ('hmac',
   'c:\\users\\wagne\\appdata\\local\\programs\\python\\python37-32\\lib\\hmac.py',
   'PYMODULE'),
  ('urllib3.util.retry',
   'c:\\users\\wagne\\appdata\\local\\programs\\python\\python37-32\\lib\\site-packages\\urllib3\\util\\retry.py',
   'PYMODULE'),
  ('urllib3.util',
   'c:\\users\\wagne\\appdata\\local\\programs\\python\\python37-32\\lib\\site-packages\\urllib3\\util\\__init__.py',
   'PYMODULE'),
  ('urllib3.response',
   'c:\\users\\wagne\\appdata\\local\\programs\\python\\python37-32\\lib\\site-packages\\urllib3\\response.py',
   'PYMODULE'),
  ('urllib3.poolmanager',
   'c:\\users\\wagne\\appdata\\local\\programs\\python\\python37-32\\lib\\site-packages\\urllib3\\poolmanager.py',
   'PYMODULE'),
  ('requests._internal_utils',
   'c:\\users\\wagne\\appdata\\local\\programs\\python\\python37-32\\lib\\site-packages\\requests\\_internal_utils.py',
   'PYMODULE'),
  ('requests.hooks',
   'c:\\users\\wagne\\appdata\\local\\programs\\python\\python37-32\\lib\\site-packages\\requests\\hooks.py',
   'PYMODULE'),
  ('requests.cookies',
   'c:\\users\\wagne\\appdata\\local\\programs\\python\\python37-32\\lib\\site-packages\\requests\\cookies.py',
   'PYMODULE'),
  ('dummy_threading',
   'c:\\users\\wagne\\appdata\\local\\programs\\python\\python37-32\\lib\\dummy_threading.py',
   'PYMODULE'),
  ('_dummy_thread',
   'c:\\users\\wagne\\appdata\\local\\programs\\python\\python37-32\\lib\\_dummy_thread.py',
   'PYMODULE'),
  ('requests.auth',
   'c:\\users\\wagne\\appdata\\local\\programs\\python\\python37-32\\lib\\site-packages\\requests\\auth.py',
   'PYMODULE'),
  ('requests.models',
   'c:\\users\\wagne\\appdata\\local\\programs\\python\\python37-32\\lib\\site-packages\\requests\\models.py',
   'PYMODULE'),
  ('requests.packages',
   'c:\\users\\wagne\\appdata\\local\\programs\\python\\python37-32\\lib\\site-packages\\requests\\packages.py',
   'PYMODULE'),
  ('requests.utils',
   'c:\\users\\wagne\\appdata\\local\\programs\\python\\python37-32\\lib\\site-packages\\requests\\utils.py',
   'PYMODULE'),
  ('requests.certs',
   'c:\\users\\wagne\\appdata\\local\\programs\\python\\python37-32\\lib\\site-packages\\requests\\certs.py',
   'PYMODULE'),
  ('certifi',
   'c:\\users\\wagne\\appdata\\local\\programs\\python\\python37-32\\lib\\site-packages\\certifi\\__init__.py',
   'PYMODULE'),
  ('certifi.core',
   'c:\\users\\wagne\\appdata\\local\\programs\\python\\python37-32\\lib\\site-packages\\certifi\\core.py',
   'PYMODULE'),
  ('requests.__version__',
   'c:\\users\\wagne\\appdata\\local\\programs\\python\\python37-32\\lib\\site-packages\\requests\\__version__.py',
   'PYMODULE'),
  ('urllib3.exceptions',
   'c:\\users\\wagne\\appdata\\local\\programs\\python\\python37-32\\lib\\site-packages\\urllib3\\exceptions.py',
   'PYMODULE'),
  ('urllib3.contrib.pyopenssl',
   'c:\\users\\wagne\\appdata\\local\\programs\\python\\python37-32\\lib\\site-packages\\urllib3\\contrib\\pyopenssl.py',
   'PYMODULE'),
  ('urllib3.packages.backports.makefile',
   'c:\\users\\wagne\\appdata\\local\\programs\\python\\python37-32\\lib\\site-packages\\urllib3\\packages\\backports\\makefile.py',
   'PYMODULE'),
  ('urllib3.packages.backports',
   'c:\\users\\wagne\\appdata\\local\\programs\\python\\python37-32\\lib\\site-packages\\urllib3\\packages\\backports\\__init__.py',
   'PYMODULE'),
  ('urllib3.contrib',
   'c:\\users\\wagne\\appdata\\local\\programs\\python\\python37-32\\lib\\site-packages\\urllib3\\contrib\\__init__.py',
   'PYMODULE'),
  ('requests.exceptions',
   'c:\\users\\wagne\\appdata\\local\\programs\\python\\python37-32\\lib\\site-packages\\requests\\exceptions.py',
   'PYMODULE'),
  ('chardet',
   'c:\\users\\wagne\\appdata\\local\\programs\\python\\python37-32\\lib\\site-packages\\chardet\\__init__.py',
   'PYMODULE'),
  ('chardet.version',
   'c:\\users\\wagne\\appdata\\local\\programs\\python\\python37-32\\lib\\site-packages\\chardet\\version.py',
   'PYMODULE'),
  ('chardet.universaldetector',
   'c:\\users\\wagne\\appdata\\local\\programs\\python\\python37-32\\lib\\site-packages\\chardet\\universaldetector.py',
   'PYMODULE'),
  ('chardet.sbcsgroupprober',
   'c:\\users\\wagne\\appdata\\local\\programs\\python\\python37-32\\lib\\site-packages\\chardet\\sbcsgroupprober.py',
   'PYMODULE'),
  ('chardet.langturkishmodel',
   'c:\\users\\wagne\\appdata\\local\\programs\\python\\python37-32\\lib\\site-packages\\chardet\\langturkishmodel.py',
   'PYMODULE'),
  ('chardet.hebrewprober',
   'c:\\users\\wagne\\appdata\\local\\programs\\python\\python37-32\\lib\\site-packages\\chardet\\hebrewprober.py',
   'PYMODULE'),
  ('chardet.charsetprober',
   'c:\\users\\wagne\\appdata\\local\\programs\\python\\python37-32\\lib\\site-packages\\chardet\\charsetprober.py',
   'PYMODULE'),
  ('chardet.langhebrewmodel',
   'c:\\users\\wagne\\appdata\\local\\programs\\python\\python37-32\\lib\\site-packages\\chardet\\langhebrewmodel.py',
   'PYMODULE'),
  ('chardet.langthaimodel',
   'c:\\users\\wagne\\appdata\\local\\programs\\python\\python37-32\\lib\\site-packages\\chardet\\langthaimodel.py',
   'PYMODULE'),
  ('chardet.langbulgarianmodel',
   'c:\\users\\wagne\\appdata\\local\\programs\\python\\python37-32\\lib\\site-packages\\chardet\\langbulgarianmodel.py',
   'PYMODULE'),
  ('chardet.langgreekmodel',
   'c:\\users\\wagne\\appdata\\local\\programs\\python\\python37-32\\lib\\site-packages\\chardet\\langgreekmodel.py',
   'PYMODULE'),
  ('chardet.langcyrillicmodel',
   'c:\\users\\wagne\\appdata\\local\\programs\\python\\python37-32\\lib\\site-packages\\chardet\\langcyrillicmodel.py',
   'PYMODULE'),
  ('chardet.sbcharsetprober',
   'c:\\users\\wagne\\appdata\\local\\programs\\python\\python37-32\\lib\\site-packages\\chardet\\sbcharsetprober.py',
   'PYMODULE'),
  ('chardet.mbcsgroupprober',
   'c:\\users\\wagne\\appdata\\local\\programs\\python\\python37-32\\lib\\site-packages\\chardet\\mbcsgroupprober.py',
   'PYMODULE'),
  ('chardet.euctwprober',
   'c:\\users\\wagne\\appdata\\local\\programs\\python\\python37-32\\lib\\site-packages\\chardet\\euctwprober.py',
   'PYMODULE'),
  ('chardet.mbcssm',
   'c:\\users\\wagne\\appdata\\local\\programs\\python\\python37-32\\lib\\site-packages\\chardet\\mbcssm.py',
   'PYMODULE'),
  ('chardet.chardistribution',
   'c:\\users\\wagne\\appdata\\local\\programs\\python\\python37-32\\lib\\site-packages\\chardet\\chardistribution.py',
   'PYMODULE'),
  ('chardet.jisfreq',
   'c:\\users\\wagne\\appdata\\local\\programs\\python\\python37-32\\lib\\site-packages\\chardet\\jisfreq.py',
   'PYMODULE'),
  ('chardet.big5freq',
   'c:\\users\\wagne\\appdata\\local\\programs\\python\\python37-32\\lib\\site-packages\\chardet\\big5freq.py',
   'PYMODULE'),
  ('chardet.gb2312freq',
   'c:\\users\\wagne\\appdata\\local\\programs\\python\\python37-32\\lib\\site-packages\\chardet\\gb2312freq.py',
   'PYMODULE'),
  ('chardet.euckrfreq',
   'c:\\users\\wagne\\appdata\\local\\programs\\python\\python37-32\\lib\\site-packages\\chardet\\euckrfreq.py',
   'PYMODULE'),
  ('chardet.euctwfreq',
   'c:\\users\\wagne\\appdata\\local\\programs\\python\\python37-32\\lib\\site-packages\\chardet\\euctwfreq.py',
   'PYMODULE'),
  ('chardet.codingstatemachine',
   'c:\\users\\wagne\\appdata\\local\\programs\\python\\python37-32\\lib\\site-packages\\chardet\\codingstatemachine.py',
   'PYMODULE'),
  ('chardet.mbcharsetprober',
   'c:\\users\\wagne\\appdata\\local\\programs\\python\\python37-32\\lib\\site-packages\\chardet\\mbcharsetprober.py',
   'PYMODULE'),
  ('chardet.big5prober',
   'c:\\users\\wagne\\appdata\\local\\programs\\python\\python37-32\\lib\\site-packages\\chardet\\big5prober.py',
   'PYMODULE'),
  ('chardet.cp949prober',
   'c:\\users\\wagne\\appdata\\local\\programs\\python\\python37-32\\lib\\site-packages\\chardet\\cp949prober.py',
   'PYMODULE'),
  ('chardet.euckrprober',
   'c:\\users\\wagne\\appdata\\local\\programs\\python\\python37-32\\lib\\site-packages\\chardet\\euckrprober.py',
   'PYMODULE'),
  ('chardet.gb2312prober',
   'c:\\users\\wagne\\appdata\\local\\programs\\python\\python37-32\\lib\\site-packages\\chardet\\gb2312prober.py',
   'PYMODULE'),
  ('chardet.eucjpprober',
   'c:\\users\\wagne\\appdata\\local\\programs\\python\\python37-32\\lib\\site-packages\\chardet\\eucjpprober.py',
   'PYMODULE'),
  ('chardet.jpcntx',
   'c:\\users\\wagne\\appdata\\local\\programs\\python\\python37-32\\lib\\site-packages\\chardet\\jpcntx.py',
   'PYMODULE'),
  ('chardet.sjisprober',
   'c:\\users\\wagne\\appdata\\local\\programs\\python\\python37-32\\lib\\site-packages\\chardet\\sjisprober.py',
   'PYMODULE'),
  ('chardet.utf8prober',
   'c:\\users\\wagne\\appdata\\local\\programs\\python\\python37-32\\lib\\site-packages\\chardet\\utf8prober.py',
   'PYMODULE'),
  ('chardet.latin1prober',
   'c:\\users\\wagne\\appdata\\local\\programs\\python\\python37-32\\lib\\site-packages\\chardet\\latin1prober.py',
   'PYMODULE'),
  ('chardet.escprober',
   'c:\\users\\wagne\\appdata\\local\\programs\\python\\python37-32\\lib\\site-packages\\chardet\\escprober.py',
   'PYMODULE'),
  ('chardet.escsm',
   'c:\\users\\wagne\\appdata\\local\\programs\\python\\python37-32\\lib\\site-packages\\chardet\\escsm.py',
   'PYMODULE'),
  ('chardet.enums',
   'c:\\users\\wagne\\appdata\\local\\programs\\python\\python37-32\\lib\\site-packages\\chardet\\enums.py',
   'PYMODULE'),
  ('chardet.charsetgroupprober',
   'c:\\users\\wagne\\appdata\\local\\programs\\python\\python37-32\\lib\\site-packages\\chardet\\charsetgroupprober.py',
   'PYMODULE'),
  ('chardet.compat',
   'c:\\users\\wagne\\appdata\\local\\programs\\python\\python37-32\\lib\\site-packages\\chardet\\compat.py',
   'PYMODULE'),
  ('urllib3',
   'c:\\users\\wagne\\appdata\\local\\programs\\python\\python37-32\\lib\\site-packages\\urllib3\\__init__.py',
   'PYMODULE'),
  ('json',
   'c:\\users\\wagne\\appdata\\local\\programs\\python\\python37-32\\lib\\json\\__init__.py',
   'PYMODULE'),
  ('json.encoder',
   'c:\\users\\wagne\\appdata\\local\\programs\\python\\python37-32\\lib\\json\\encoder.py',
   'PYMODULE'),
  ('json.decoder',
   'c:\\users\\wagne\\appdata\\local\\programs\\python\\python37-32\\lib\\json\\decoder.py',
   'PYMODULE'),
  ('json.scanner',
   'c:\\users\\wagne\\appdata\\local\\programs\\python\\python37-32\\lib\\json\\scanner.py',
   'PYMODULE'),
  ('SlackAPI',
   'C:\\Users\\wagne\\Desktop\\comunicacaoslack\\SlackAPI.py',
   'PYMODULE'),
  ('Comunicados',
   'C:\\Users\\wagne\\Desktop\\comunicacaoslack\\Comunicados.py',
   'PYMODULE'),
  ('erro2',
   'C:\\Users\\wagne\\Desktop\\comunicacaoslack\\erro2.py',
   'PYMODULE'),
  ('erro', 'C:\\Users\\wagne\\Desktop\\comunicacaoslack\\erro.py', 'PYMODULE'),
  ('ReservaSala',
   'C:\\Users\\wagne\\Desktop\\comunicacaoslack\\ReservaSala.py',
   'PYMODULE'),
  ('PyQt5',
   'c:\\users\\wagne\\appdata\\local\\programs\\python\\python37-32\\lib\\site-packages\\PyQt5\\__init__.py',
   'PYMODULE')],
 [('python37.dll',
   'c:\\users\\wagne\\appdata\\local\\programs\\python\\python37-32\\python37.dll',
   'BINARY'),
  ('VCRUNTIME140.dll',
   'c:\\users\\wagne\\appdata\\local\\programs\\python\\python37-32\\VCRUNTIME140.dll',
   'BINARY'),
  ('PyQt5\\Qt\\bin\\libGLESv2.dll',
   'C:\\users\\wagne\\appdata\\local\\programs\\python\\python37-32\\lib\\site-packages\\PyQt5\\Qt\\bin\\libGLESv2.dll',
   'BINARY'),
  ('PyQt5\\Qt\\plugins\\imageformats\\qico.dll',
   'C:\\users\\wagne\\appdata\\local\\programs\\python\\python37-32\\lib\\site-packages\\PyQt5\\Qt\\plugins\\imageformats\\qico.dll',
   'BINARY'),
  ('PyQt5\\Qt\\plugins\\platformthemes\\qxdgdesktopportal.dll',
   'C:\\users\\wagne\\appdata\\local\\programs\\python\\python37-32\\lib\\site-packages\\PyQt5\\Qt\\plugins\\platformthemes\\qxdgdesktopportal.dll',
   'BINARY'),
  ('PyQt5\\Qt\\bin\\d3dcompiler_47.dll',
   'C:\\users\\wagne\\appdata\\local\\programs\\python\\python37-32\\lib\\site-packages\\PyQt5\\Qt\\bin\\d3dcompiler_47.dll',
   'BINARY'),
  ('PyQt5\\Qt\\plugins\\imageformats\\qwbmp.dll',
   'C:\\users\\wagne\\appdata\\local\\programs\\python\\python37-32\\lib\\site-packages\\PyQt5\\Qt\\plugins\\imageformats\\qwbmp.dll',
   'BINARY'),
  ('PyQt5\\Qt\\plugins\\imageformats\\qgif.dll',
   'C:\\users\\wagne\\appdata\\local\\programs\\python\\python37-32\\lib\\site-packages\\PyQt5\\Qt\\plugins\\imageformats\\qgif.dll',
   'BINARY'),
  ('PyQt5\\Qt\\plugins\\platforms\\qoffscreen.dll',
   'C:\\users\\wagne\\appdata\\local\\programs\\python\\python37-32\\lib\\site-packages\\PyQt5\\Qt\\plugins\\platforms\\qoffscreen.dll',
   'BINARY'),
  ('PyQt5\\Qt\\bin\\opengl32sw.dll',
   'C:\\users\\wagne\\appdata\\local\\programs\\python\\python37-32\\lib\\site-packages\\PyQt5\\Qt\\bin\\opengl32sw.dll',
   'BINARY'),
  ('PyQt5\\Qt\\plugins\\imageformats\\qsvg.dll',
   'C:\\users\\wagne\\appdata\\local\\programs\\python\\python37-32\\lib\\site-packages\\PyQt5\\Qt\\plugins\\imageformats\\qsvg.dll',
   'BINARY'),
  ('PyQt5\\Qt\\plugins\\imageformats\\qwebp.dll',
   'C:\\users\\wagne\\appdata\\local\\programs\\python\\python37-32\\lib\\site-packages\\PyQt5\\Qt\\plugins\\imageformats\\qwebp.dll',
   'BINARY'),
  ('PyQt5\\Qt\\plugins\\platforms\\qwebgl.dll',
   'C:\\users\\wagne\\appdata\\local\\programs\\python\\python37-32\\lib\\site-packages\\PyQt5\\Qt\\plugins\\platforms\\qwebgl.dll',
   'BINARY'),
  ('PyQt5\\Qt\\plugins\\imageformats\\qjpeg.dll',
   'C:\\users\\wagne\\appdata\\local\\programs\\python\\python37-32\\lib\\site-packages\\PyQt5\\Qt\\plugins\\imageformats\\qjpeg.dll',
   'BINARY'),
  ('PyQt5\\Qt\\plugins\\platforms\\qminimal.dll',
   'C:\\users\\wagne\\appdata\\local\\programs\\python\\python37-32\\lib\\site-packages\\PyQt5\\Qt\\plugins\\platforms\\qminimal.dll',
   'BINARY'),
  ('PyQt5\\Qt\\bin\\libEGL.dll',
   'C:\\users\\wagne\\appdata\\local\\programs\\python\\python37-32\\lib\\site-packages\\PyQt5\\Qt\\bin\\libEGL.dll',
   'BINARY'),
  ('PyQt5\\Qt\\plugins\\imageformats\\qicns.dll',
   'C:\\users\\wagne\\appdata\\local\\programs\\python\\python37-32\\lib\\site-packages\\PyQt5\\Qt\\plugins\\imageformats\\qicns.dll',
   'BINARY'),
  ('PyQt5\\Qt\\plugins\\imageformats\\qtga.dll',
   'C:\\users\\wagne\\appdata\\local\\programs\\python\\python37-32\\lib\\site-packages\\PyQt5\\Qt\\plugins\\imageformats\\qtga.dll',
   'BINARY'),
  ('PyQt5\\Qt\\plugins\\styles\\qwindowsvistastyle.dll',
   'C:\\users\\wagne\\appdata\\local\\programs\\python\\python37-32\\lib\\site-packages\\PyQt5\\Qt\\plugins\\styles\\qwindowsvistastyle.dll',
   'BINARY'),
  ('PyQt5\\Qt\\plugins\\imageformats\\qtiff.dll',
   'C:\\users\\wagne\\appdata\\local\\programs\\python\\python37-32\\lib\\site-packages\\PyQt5\\Qt\\plugins\\imageformats\\qtiff.dll',
   'BINARY'),
  ('PyQt5\\Qt\\plugins\\platforms\\qwindows.dll',
   'C:\\users\\wagne\\appdata\\local\\programs\\python\\python37-32\\lib\\site-packages\\PyQt5\\Qt\\plugins\\platforms\\qwindows.dll',
   'BINARY'),
  ('PyQt5\\Qt\\plugins\\iconengines\\qsvgicon.dll',
   'C:\\users\\wagne\\appdata\\local\\programs\\python\\python37-32\\lib\\site-packages\\PyQt5\\Qt\\plugins\\iconengines\\qsvgicon.dll',
   'BINARY'),
  ('_ssl',
   'c:\\users\\wagne\\appdata\\local\\programs\\python\\python37-32\\DLLs\\_ssl.pyd',
   'EXTENSION'),
  ('pyexpat',
   'c:\\users\\wagne\\appdata\\local\\programs\\python\\python37-32\\DLLs\\pyexpat.pyd',
   'EXTENSION'),
  ('unicodedata',
   'c:\\users\\wagne\\appdata\\local\\programs\\python\\python37-32\\DLLs\\unicodedata.pyd',
   'EXTENSION'),
  ('_hashlib',
   'c:\\users\\wagne\\appdata\\local\\programs\\python\\python37-32\\DLLs\\_hashlib.pyd',
   'EXTENSION'),
  ('_bz2',
   'c:\\users\\wagne\\appdata\\local\\programs\\python\\python37-32\\DLLs\\_bz2.pyd',
   'EXTENSION'),
  ('_lzma',
   'c:\\users\\wagne\\appdata\\local\\programs\\python\\python37-32\\DLLs\\_lzma.pyd',
   'EXTENSION'),
  ('_socket',
   'c:\\users\\wagne\\appdata\\local\\programs\\python\\python37-32\\DLLs\\_socket.pyd',
   'EXTENSION'),
  ('select',
   'c:\\users\\wagne\\appdata\\local\\programs\\python\\python37-32\\DLLs\\select.pyd',
   'EXTENSION'),
  ('_queue',
   'c:\\users\\wagne\\appdata\\local\\programs\\python\\python37-32\\DLLs\\_queue.pyd',
   'EXTENSION'),
  ('PyQt5.QtWidgets',
   'c:\\users\\wagne\\appdata\\local\\programs\\python\\python37-32\\lib\\site-packages\\PyQt5\\QtWidgets.pyd',
   'EXTENSION'),
  ('PyQt5.QtGui',
   'c:\\users\\wagne\\appdata\\local\\programs\\python\\python37-32\\lib\\site-packages\\PyQt5\\QtGui.pyd',
   'EXTENSION'),
  ('PyQt5.QtCore',
   'c:\\users\\wagne\\appdata\\local\\programs\\python\\python37-32\\lib\\site-packages\\PyQt5\\QtCore.pyd',
   'EXTENSION'),
  ('PyQt5.sip',
   'c:\\users\\wagne\\appdata\\local\\programs\\python\\python37-32\\lib\\site-packages\\PyQt5\\sip.cp37-win32.pyd',
   'EXTENSION'),
  ('MSVCP140.dll',
   'C:\\users\\wagne\\appdata\\local\\programs\\python\\python37-32\\lib\\site-packages\\PyQt5\\Qt\\bin\\MSVCP140.dll',
   'BINARY'),
  ('Qt5Core.dll',
   'c:\\users\\wagne\\appdata\\local\\programs\\python\\python37-32\\lib\\site-packages\\PyQt5\\Qt\\bin\\qt5core.dll',
   'BINARY'),
  ('Qt5Gui.dll',
   'c:\\users\\wagne\\appdata\\local\\programs\\python\\python37-32\\lib\\site-packages\\PyQt5\\Qt\\bin\\qt5gui.dll',
   'BINARY'),
  ('Qt5DBus.dll',
   'c:\\users\\wagne\\appdata\\local\\programs\\python\\python37-32\\lib\\site-packages\\PyQt5\\Qt\\bin\\qt5dbus.dll',
   'BINARY'),
  ('Qt5Svg.dll',
   'c:\\users\\wagne\\appdata\\local\\programs\\python\\python37-32\\lib\\site-packages\\PyQt5\\Qt\\bin\\qt5svg.dll',
   'BINARY'),
  ('Qt5Network.dll',
   'c:\\users\\wagne\\appdata\\local\\programs\\python\\python37-32\\lib\\site-packages\\PyQt5\\Qt\\bin\\qt5network.dll',
   'BINARY'),
  ('Qt5Quick.dll',
   'c:\\users\\wagne\\appdata\\local\\programs\\python\\python37-32\\lib\\site-packages\\PyQt5\\Qt\\bin\\qt5quick.dll',
   'BINARY'),
  ('Qt5WebSockets.dll',
   'c:\\users\\wagne\\appdata\\local\\programs\\python\\python37-32\\lib\\site-packages\\PyQt5\\Qt\\bin\\qt5websockets.dll',
   'BINARY'),
  ('libGLESv2.dll',
   'C:\\users\\wagne\\appdata\\local\\programs\\python\\python37-32\\lib\\site-packages\\PyQt5\\Qt\\bin\\libGLESv2.dll',
   'BINARY'),
  ('Qt5Widgets.dll',
   'c:\\users\\wagne\\appdata\\local\\programs\\python\\python37-32\\lib\\site-packages\\PyQt5\\Qt\\bin\\qt5widgets.dll',
   'BINARY'),
  ('libssl-1_1.dll',
   'c:\\users\\wagne\\appdata\\local\\programs\\python\\python37-32\\DLLs\\libssl-1_1.dll',
   'BINARY'),
  ('libcrypto-1_1.dll',
   'c:\\users\\wagne\\appdata\\local\\programs\\python\\python37-32\\DLLs\\libcrypto-1_1.dll',
   'BINARY'),
  ('python3.dll',
   'c:\\users\\wagne\\appdata\\local\\programs\\python\\python37-32\\python3.dll',
   'BINARY'),
  ('Qt5Qml.dll',
   'c:\\users\\wagne\\appdata\\local\\programs\\python\\python37-32\\lib\\site-packages\\PyQt5\\Qt\\bin\\Qt5Qml.dll',
   'BINARY')],
 [],
 [],
 [('base_library.zip',
   'C:\\Users\\wagne\\Desktop\\comunicacaoslack\\build\\MENU\\base_library.zip',
   'DATA'),
  ('PyQt5\\translations\\qtbase_he.qm',
   'C:\\users\\wagne\\appdata\\local\\programs\\python\\python37-32\\lib\\site-packages\\PyQt5\\Qt\\translations\\qtbase_he.qm',
   'DATA'),
  ('PyQt5\\translations\\qtbase_pl.qm',
   'C:\\users\\wagne\\appdata\\local\\programs\\python\\python37-32\\lib\\site-packages\\PyQt5\\Qt\\translations\\qtbase_pl.qm',
   'DATA'),
  ('PyQt5\\translations\\qtbase_ru.qm',
   'C:\\users\\wagne\\appdata\\local\\programs\\python\\python37-32\\lib\\site-packages\\PyQt5\\Qt\\translations\\qtbase_ru.qm',
   'DATA'),
  ('PyQt5\\translations\\qtbase_sk.qm',
   'C:\\users\\wagne\\appdata\\local\\programs\\python\\python37-32\\lib\\site-packages\\PyQt5\\Qt\\translations\\qtbase_sk.qm',
   'DATA'),
  ('PyQt5\\translations\\qtbase_uk.qm',
   'C:\\users\\wagne\\appdata\\local\\programs\\python\\python37-32\\lib\\site-packages\\PyQt5\\Qt\\translations\\qtbase_uk.qm',
   'DATA'),
  ('PyQt5\\translations\\qtbase_lv.qm',
   'C:\\users\\wagne\\appdata\\local\\programs\\python\\python37-32\\lib\\site-packages\\PyQt5\\Qt\\translations\\qtbase_lv.qm',
   'DATA'),
  ('PyQt5\\translations\\qtbase_da.qm',
   'C:\\users\\wagne\\appdata\\local\\programs\\python\\python37-32\\lib\\site-packages\\PyQt5\\Qt\\translations\\qtbase_da.qm',
   'DATA'),
  ('PyQt5\\translations\\qtbase_gd.qm',
   'C:\\users\\wagne\\appdata\\local\\programs\\python\\python37-32\\lib\\site-packages\\PyQt5\\Qt\\translations\\qtbase_gd.qm',
   'DATA'),
  ('PyQt5\\translations\\qtbase_cs.qm',
   'C:\\users\\wagne\\appdata\\local\\programs\\python\\python37-32\\lib\\site-packages\\PyQt5\\Qt\\translations\\qtbase_cs.qm',
   'DATA'),
  ('PyQt5\\translations\\qtbase_hu.qm',
   'C:\\users\\wagne\\appdata\\local\\programs\\python\\python37-32\\lib\\site-packages\\PyQt5\\Qt\\translations\\qtbase_hu.qm',
   'DATA'),
  ('PyQt5\\translations\\qtbase_fi.qm',
   'C:\\users\\wagne\\appdata\\local\\programs\\python\\python37-32\\lib\\site-packages\\PyQt5\\Qt\\translations\\qtbase_fi.qm',
   'DATA'),
  ('PyQt5\\translations\\qtbase_it.qm',
   'C:\\users\\wagne\\appdata\\local\\programs\\python\\python37-32\\lib\\site-packages\\PyQt5\\Qt\\translations\\qtbase_it.qm',
   'DATA'),
  ('PyQt5\\translations\\qtbase_es.qm',
   'C:\\users\\wagne\\appdata\\local\\programs\\python\\python37-32\\lib\\site-packages\\PyQt5\\Qt\\translations\\qtbase_es.qm',
   'DATA'),
  ('PyQt5\\translations\\qtbase_ar.qm',
   'C:\\users\\wagne\\appdata\\local\\programs\\python\\python37-32\\lib\\site-packages\\PyQt5\\Qt\\translations\\qtbase_ar.qm',
   'DATA'),
  ('PyQt5\\translations\\qtbase_de.qm',
   'C:\\users\\wagne\\appdata\\local\\programs\\python\\python37-32\\lib\\site-packages\\PyQt5\\Qt\\translations\\qtbase_de.qm',
   'DATA'),
  ('PyQt5\\translations\\qtbase_ko.qm',
   'C:\\users\\wagne\\appdata\\local\\programs\\python\\python37-32\\lib\\site-packages\\PyQt5\\Qt\\translations\\qtbase_ko.qm',
   'DATA'),
  ('certifi\\cacert.pem',
   'c:\\users\\wagne\\appdata\\local\\programs\\python\\python37-32\\lib\\site-packages\\certifi\\cacert.pem',
   'DATA'),
  ('PyQt5\\translations\\qtbase_ja.qm',
   'C:\\users\\wagne\\appdata\\local\\programs\\python\\python37-32\\lib\\site-packages\\PyQt5\\Qt\\translations\\qtbase_ja.qm',
   'DATA'),
  ('PyQt5\\translations\\qtbase_zh_TW.qm',
   'C:\\users\\wagne\\appdata\\local\\programs\\python\\python37-32\\lib\\site-packages\\PyQt5\\Qt\\translations\\qtbase_zh_TW.qm',
   'DATA'),
  ('PyQt5\\translations\\qtbase_bg.qm',
   'C:\\users\\wagne\\appdata\\local\\programs\\python\\python37-32\\lib\\site-packages\\PyQt5\\Qt\\translations\\qtbase_bg.qm',
   'DATA'),
  ('PyQt5\\translations\\qtbase_en.qm',
   'C:\\users\\wagne\\appdata\\local\\programs\\python\\python37-32\\lib\\site-packages\\PyQt5\\Qt\\translations\\qtbase_en.qm',
   'DATA'),
  ('PyQt5\\translations\\qtbase_fr.qm',
   'C:\\users\\wagne\\appdata\\local\\programs\\python\\python37-32\\lib\\site-packages\\PyQt5\\Qt\\translations\\qtbase_fr.qm',
   'DATA'),
  ('PyQt5\\translations\\qtbase_ca.qm',
   'C:\\users\\wagne\\appdata\\local\\programs\\python\\python37-32\\lib\\site-packages\\PyQt5\\Qt\\translations\\qtbase_ca.qm',
   'DATA')],
 [])
